ELE0515 - Circuitos Lógicos/src/Registrador com múltiplas funções/simulation/qsim/reg_mult.msim.vcd
$comment
	File created using the following command:
		vcd file reg_mult.msim.vcd -direction
$end
$date
	Wed May 01 17:52:38 2019
$end
$version
	ModelSim Version 10.1d
$end
$timescale
	1ps
$end
$scope module reg_mult_vlg_vec_tst $end
$var reg 1 ! CLOCK $end
$var reg 1 " I0 $end
$var reg 1 # I1 $end
$var reg 1 $ I2 $end
$var reg 1 % I3 $end
$var reg 1 & LD_CTRL $end
$var reg 1 ' SL_CTRL $end
$var reg 1 ( SL_IN $end
$var reg 1 ) SR_CTRL $end
$var reg 1 * SR_IN $end
$var reg 1 + VCC $end
$var wire 1 , Q0 $end
$var wire 1 - Q1 $end
$var wire 1 . Q2 $end
$var wire 1 / Q3 $end
$var wire 1 0 sampler $end
$scope module i1 $end
$var wire 1 1 gnd $end
$var wire 1 2 vcc $end
$var wire 1 3 unknown $end
$var tri1 1 4 devclrn $end
$var tri1 1 5 devpor $end
$var tri1 1 6 devoe $end
$var wire 1 7 SL_CTRL~input_o $end
$var wire 1 8 I1~input_o $end
$var wire 1 9 Q3~output_o $end
$var wire 1 : Q2~output_o $end
$var wire 1 ; Q1~output_o $end
$var wire 1 < Q0~output_o $end
$var wire 1 = CLOCK~input_o $end
$var wire 1 > CLOCK~inputclkctrl_outclk $end
$var wire 1 ? LD_CTRL~input_o $end
$var wire 1 @ SR_CTRL~input_o $end
$var wire 1 A inst4|inst5~0_combout $end
$var wire 1 B SR_IN~input_o $end
$var wire 1 C I3~input_o $end
$var wire 1 D inst|inst|inst7~0_combout $end
$var wire 1 E inst|inst|inst7~1_combout $end
$var wire 1 F VCC~input_o $end
$var wire 1 G VCC~inputclkctrl_outclk $end
$var wire 1 H inst|inst3~q $end
$var wire 1 I I2~input_o $end
$var wire 1 J I0~input_o $end
$var wire 1 K SL_IN~input_o $end
$var wire 1 L inst|inst4|inst7~0_combout $end
$var wire 1 M inst|inst4|inst7~1_combout $end
$var wire 1 N inst|inst8~q $end
$var wire 1 O inst4|inst4~combout $end
$var wire 1 P inst|inst2|inst7~0_combout $end
$var wire 1 Q inst|inst2|inst7~1_combout $end
$var wire 1 R inst|inst7~q $end
$var wire 1 S inst|inst1|inst7~0_combout $end
$var wire 1 T inst|inst1|inst7~1_combout $end
$var wire 1 U inst|inst6~q $end
$upscope $end
$upscope $end
$enddefinitions $end
#0
$dumpvars
0!
0"
0#
1$
0%
0&
0'
1(
0)
1*
1+
0,
0-
0.
0/
x0
01
12
x3
14
15
16
07
08
09
0:
0;
0<
0=
0>
0?
0@
0A
1B
0C
0D
0E
1F
1G
0H
1I
0J
1K
0L
0M
0N
0O
0P
0Q
0R
0S
0T
0U
$end
#25000
1!
1=
1>
00
#30000
1"
1J
10
#50000
0!
0=
0>
00
#60000
1#
0"
18
0J
10
#75000
1!
1=
1>
00
#90000
1%
0$
0#
1"
1C
0I
08
1J
10
#100000
0!
0=
0>
00
#120000
1#
18
10
#125000
1)
1!
1@
1=
1>
00
1A
1E
#150000
0%
0#
0!
0C
08
0=
0>
10
#175000
1!
1=
1>
00
1H
1S
19
1/
1T
#180000
1$
1%
1#
1I
1C
18
10
#200000
0!
0=
0>
00
#210000
0$
0%
0I
0C
10
#225000
1!
1=
1>
00
1U
1Q
1:
1.
#240000
0"
0#
1$
1%
0J
08
1I
1C
10
#250000
1'
0)
0!
17
0@
0=
0>
00
1O
0T
1P
1L
1D
0Q
1M
#270000
1"
1#
1J
18
10
#275000
1!
1=
1>
00
0U
1N
1Q
0E
0:
1<
0.
1,
#300000
0$
0%
0"
0!
0I
0C
0J
0=
0>
10
#325000
1!
1=
1>
00
1R
0H
1T
1;
09
1-
0/
#330000
0#
1$
08
1I
10
#350000
0!
0=
0>
00
#360000
1%
1C
10
#375000
1)
1!
1@
1=
1>
00
0O
0S
0P
0D
0T
0Q
1E
1U
1Q
1:
1.
#390000
1"
0%
1J
0C
10
#400000
0!
0=
0>
00
#420000
1#
0$
1%
18
0I
1C
10
#425000
1!
1=
1>
00
0U
1H
1S
0Q
0:
19
0.
1/
1T
#450000
0#
0%
0!
08
0C
0=
0>
10
#475000
1!
1=
1>
00
1U
0R
1Q
0L
1:
0;
1.
0-
0M
#480000
1$
1#
1%
1I
18
1C
10
#500000
1&
0'
0)
0!
1?
07
0@
0=
0>
00
1O
0A
0T
0S
1P
1M
1D
0Q
0E
1T
1Q
1E
#510000
0"
0%
0J
0C
10
0M
0D
0E
#525000
1!
1=
1>
00
1R
0N
0H
1;
0<
09
1-
0,
0/
#540000
0$
0#
1"
1%
0I
08
1J
1C
10
0T
0P
1M
1D
0Q
1E
#550000
0!
0=
0>
00
#570000
1$
1#
0"
1I
18
0J
10
1T
1P
0M
1Q
#575000
1!
1=
1>
00
1H
19
1/
#600000
0%
0!
0C
0=
0>
10
0D
0E
#625000
1)
1!
1@
1=
1>
00
0H
09
0/
#630000
0#
1"
08
1J
10
0P
1M
0Q
#650000
0!
0=
0>
00
#660000
1%
0"
1C
0J
10
1D
0M
1E
#675000
1!
1=
1>
00
0R
1H
0;
19
0-
1/
#690000
0$
1#
0%
1"
0I
18
0C
1J
10
0T
1P
0D
1M
1Q
0E
#700000
0!
0=
0>
00
#720000
0#
08
10
0P
0Q
#725000
1!
1=
1>
00
0U
1N
0H
0:
1<
09
0.
1,
0/
#750000
1'
0)
1$
1%
1#
0!
17
0@
1I
1C
18
0=
0>
10
1T
1D
1P
1E
1Q
#775000
1!
1=
1>
00
1U
1R
1H
1:
1;
19
1.
1-
1/
#780000
0"
0$
0%
0J
0I
0C
10
0M
0T
0D
0E
#800000
0!
0=
0>
00
#810000
0#
1$
1%
08
1I
1C
10
0P
1T
1D
0Q
1E
#825000
1!
1=
1>
00
0R
0N
0;
0<
0-
0,
#840000
0$
0%
0I
0C
10
0T
0D
0E
#850000
0!
0=
0>
00
#870000
1"
1#
1$
1J
18
1I
10
1M
1P
1T
1Q
#875000
1)
1!
1@
1=
1>
00
1R
1N
0H
1;
1<
09
1-
1,
0/
#900000
0!
0=
0>
10
#925000
1!
1=
1>
00
#930000
1%
0"
1C
0J
10
1D
0M
1E
#950000
0!
0=
0>
00
#960000
0$
0I
10
0T
#975000
1!
1=
1>
00
0U
0N
1H
0:
0<
19
0.
0,
1/
#990000
0%
1"
1$
0C
1J
1I
10
0D
1M
1T
0E
